<?xml version="1.0" encoding="utf-8"?>
<!-- Generator: Adobe Illustrator 22.0.1, SVG Export Plug-In . SVG Version: 6.00 Build 0)  -->
<svg version="1.1" xmlns="http://www.w3.org/2000/svg" xmlns:xlink="http://www.w3.org/1999/xlink" x="0px" y="0px"
	 viewBox="0 0 97 19.9" style="enable-background:new 0 0 97 19.9;" xml:space="preserve">
<style type="text/css">
	.st0{display:none;}
	.st1{fill:#3A425A;}
</style>
<g id="Layer_1" class="st0">
</g>
<g id="Name">
	<g>
		<g>
			<rect x="0.1" y="-0.1" class="st1" width="10.9" height="2.4"/>
			<rect x="0.1" y="13.7" class="st1" width="10.9" height="2.4"/>
			<rect x="0.1" y="6.7" class="st1" width="10.9" height="2.4"/>
			<path class="st1" d="M43.5,9.4c0,2.8-1.5,4.4-4.1,4.4c-2.6,0-4.1-1.6-4.1-4.4v-9.4h-2.2v9.4c0,4.2,2.4,6.8,6.4,6.8
				c3.9,0,6.3-2.6,6.3-6.8v-9.4h-2.2V9.4z"/>
			<path class="st1" d="M22-0.2c-4.2,0-7.6,3.7-7.6,8.2c0,4.1,2.9,7.6,6.6,8.1v3.7h2.2v-3.7c3.7-0.6,6.6-4,6.6-8.1
				C29.6,3.5,26.2-0.2,22-0.2z M22,2.1c3,0,5.5,2.6,5.5,5.9c0,3.2-2.5,5.9-5.5,5.9c-3,0-5.5-2.6-5.5-5.9C16.5,4.8,19,2.1,22,2.1z"/>
			<path class="st1" d="M75.5,9.4c0,2.8-1.5,4.4-4.1,4.4c-2.6,0-4.1-1.6-4.1-4.4v-9.4h-2.2v9.4c0,4.2,2.4,6.8,6.4,6.8
				c3.9,0,6.3-2.6,6.3-6.8v-9.4h-2.2V9.4z"/>
			<polygon class="st1" points="94.6,-0.1 89.6,10.7 84.5,-0.1 82,-0.1 82,16 84.1,16 84.1,4.3 88.9,14.4 90.2,14.4 95,4.3 95,16
				97.1,16 97.1,-0.1 			"/>
			<rect x="50" y="-0.1" class="st1" width="10.9" height="2.4"/>
			<rect x="50" y="13.7" class="st1" width="10.9" height="2.4"/>
			<rect x="50" y="6.7" class="st1" width="10.9" height="2.4"/>
		</g>
	</g>
</g>
</svg>
