<svg version="1.1" xmlns="http://www.w3.org/2000/svg" width="24" height="24" viewBox="0 0 24 24">
<path d="M10.482 19.709c-1.272-0.764-1.683-2.414-0.919-3.686s6.754-5.984 7.018-5.826c0.264 0.158-1.649 7.321-2.413 8.593s-2.414 1.683-3.686 0.919zM20.892 21.797c-0.524 0.578-1.417 0.621-1.994 0.098s-0.621-1.417-0.098-1.994c1.52-1.677 2.376-3.851 2.376-6.161 0-5.068-4.108-9.176-9.176-9.176s-9.176 4.108-9.176 9.176c0 2.31 0.855 4.483 2.375 6.16 0.524 0.578 0.48 1.471-0.098 1.994s-1.471 0.48-1.994-0.098c-1.986-2.191-3.106-5.038-3.106-8.056 0-6.627 5.373-12 12-12s12 5.373 12 12c0 3.019-1.121 5.866-3.108 8.058z"></path>
</svg>
